[01-Dec-2019 16:04:13] - MILP_with_losses_pslack
if system_dependent('IsDebugMode')==1, dbquit; end
MILP_with_losses_pslack
[01-Dec-2019 16:05:11] - MILP_with_losses_pslack
Academic license - for non-commercial use only
Optimize a model with 764 rows, 450 columns and 2415 nonzeros
Variable types: 307 continuous, 143 integer (143 binary)
Coefficient statistics:
  Matrix range     [2e-07, 1e+01]
  Objective range  [4e+02, 1e+03]
  Bounds range     [1e+00, 1e+00]
  RHS range        [2e-07, 6e+00]
Presolve removed 638 rows and 362 columns
Presolve time: 0.01s
Presolved: 126 rows, 88 columns, 651 nonzeros
Variable types: 46 continuous, 42 integer (42 binary)

Root relaxation: objective 2.444403e+03, 77 iterations, 0.00 seconds

    Nodes    |    Current Node    |     Objective Bounds      |     Work
 Expl Unexpl |  Obj  Depth IntInf | Incumbent    BestBd   Gap | It/Node Time

     0     0 2444.40340    0    3          - 2444.40340      -     -    0s
H    0     0                    2444.4033962 2444.40340  0.00%     -    0s

Explored 1 nodes (77 simplex iterations) in 0.10 seconds
Thread count was 4 (of 4 available processors)

Solution count 1: 2444.4 

Optimal solution found (tolerance 1.00e-04)
Best objective 2.444403396202e+03, best bound 2.444403396202e+03, gap 0.0000%

Solution found at: 2444.403	
Optimal solution found at: 
	  MW 	   $/MW
	244.440	 | 10.0
	0.000	 | 12.5
	0.000	 | 15.0
	25.000	 | 0.0
	0.000	 | 17.5

|  MILP objective value:     <strong>2444.40 $/MW </strong> |
|------------------------------------------|
|	PowerFlow convergence:		0  |
|	ACOPF constraints:		0  |
|	Damping Ratio constraints:	0  |
|==========================================|
|  ACOPF objective value:   <strong> 2654.81 $/MW </strong> |
|------------------------------------------|
|	PowerFlow convergence:		1  |
|	ACOPF constraints:		0  |
|	Damping Ratio constraints:	0  |
|==========================================|

 Distances
|------------------------------------------|
|	ACOPF - MILP:		<strong>75.12</strong>	   |
|Distance from closest feasible point:	   |
|	<strong>MILP	-> 		132.500</strong>	   |
|DB:	57.500  57.500  25.000  17.500	   |
|MILP:	0.000  0.000  25.000  0.000	   |
|	<strong>ACOPF	-> 		57.381	</strong>   |
|DB:	60.000  57.500  25.000  15.000	   |
|ACOPF:	60.000  15.119  25.000  0.000	   |
|==========================================|



[01-Dec-2019 16:07:33] - MILP_with_losses_pslack
Your initial point x0 is not between bounds lb and ub; FMINCON
shifted x0 to strictly satisfy the bounds.

                                            First-order      Norm of
 Iter F-count            f(x)  Feasibility   optimality         step
    0       1    1.929375e+03    9.900e-01    6.296e+02
    1       2    1.905044e+03    5.382e-01    7.129e+02    9.272e-01
    2       4    2.049736e+03    3.831e-01    4.225e+02    3.165e-01
    3       6    2.111980e+03    3.225e-01    4.356e+02    2.994e-01
    4       7    2.170397e+03    5.040e-01    9.873e+01    1.228e-01
    5       9    2.170718e+03    5.043e-01    9.353e+01    2.783e-03
    6      10    2.188443e+03    4.874e-01    9.042e+01    6.996e-02
    7      11    2.434356e+03    2.124e-01    5.915e+02    4.738e-01
    8      12    2.539935e+03    9.805e-02    1.332e+02    2.134e-01
    9      13    2.540494e+03    9.741e-02    9.602e+01    2.127e-03
   10      14    2.554372e+03    8.589e-02    1.809e+02    1.101e-01
   11      15    2.653700e+03    2.046e-03    1.980e+02    2.253e-01
   12      17    2.654024e+03    1.064e-03    2.034e+02    9.353e-02
   13      18    2.654872e+03    5.655e-04    1.528e+02    4.076e-02
   14      19    2.654861e+03    2.768e-04    1.363e+00    3.140e-02
   15      20    2.654813e+03    1.428e-05    9.994e-01    2.086e-03
   16      21    2.654811e+03    9.651e-10    1.433e-01    1.717e-04
   17      22    2.654811e+03    2.998e-11    1.090e-02    2.030e-05
   18      23    2.654811e+03    1.040e-12    1.221e-03    3.048e-06

<a href = "matlab: helpview('optim','local_min_found','CSHelpWindow');">Local minimum found that satisfies the constraints</a>.

Optimization completed because the objective function is non-decreasing in 
<a href = "matlab: helpview('optim','feasible_directions','CSHelpWindow');">feasible directions</a>, to within the value of the <a href = "matlab: helpview('optim','optimality_tolerance_msgcsh','CSHelpWindow');">optimality tolerance</a>,
and constraints are satisfied to within the value of the <a href = "matlab: helpview('optim','constraint_tolerance','CSHelpWindow');">constraint tolerance</a>.

<<a href = "matlab: createExitMsg({'optimlib:sqpLineSearch:Exit1basic'},{'optimlib:sqpLineSearch:Exit1detailed','6.976913e-07','1.000000e-06','1.039627e-12','1.000000e-06'},true,true);;">stopping criteria details</a>>
Academic license - for non-commercial use only
Optimize a model with 764 rows, 450 columns and 2415 nonzeros
Variable types: 307 continuous, 143 integer (143 binary)
Coefficient statistics:
  Matrix range     [2e-07, 1e+01]
  Objective range  [4e+02, 1e+03]
  Bounds range     [1e+00, 1e+00]
  RHS range        [2e-07, 6e+00]
Presolve removed 638 rows and 362 columns
Presolve time: 0.01s
Presolved: 126 rows, 88 columns, 651 nonzeros
Variable types: 46 continuous, 42 integer (42 binary)

Root relaxation: objective 2.444403e+03, 77 iterations, 0.00 seconds

    Nodes    |    Current Node    |     Objective Bounds      |     Work
 Expl Unexpl |  Obj  Depth IntInf | Incumbent    BestBd   Gap | It/Node Time

     0     0 2444.40340    0    3          - 2444.40340      -     -    0s
H    0     0                    2444.4033962 2444.40340  0.00%     -    0s

Explored 1 nodes (77 simplex iterations) in 0.06 seconds
Thread count was 4 (of 4 available processors)

Solution count 1: 2444.4 

Optimal solution found (tolerance 1.00e-04)
Best objective 2.444403396202e+03, best bound 2.444403396202e+03, gap 0.0000%

Solution found at: 2444.403	
Optimal solution found at: 
	  MW 	   $/MW
	244.440	 | 10.0
	0.000	 | 12.5
	0.000	 | 15.0
	25.000	 | 0.0
	0.000	 | 17.5

|  MILP objective value:     <strong>2444.40 $/MW </strong> |
|------------------------------------------|
|	PowerFlow convergence:		0  |
|	ACOPF constraints:		0  |
|	Damping Ratio constraints:	0  |
|==========================================|
|  ACOPF objective value:   <strong> 2654.81 $/MW </strong> |
|------------------------------------------|
|	PowerFlow convergence:		1  |
|	ACOPF constraints:		0  |
|	Damping Ratio constraints:	0  |
|==========================================|

 Distances
|------------------------------------------|
|	ACOPF - MILP:		<strong>75.12</strong>	   |
|Distance from closest feasible point:	   |
|	<strong>MILP	-> 		132.500</strong>	   |
|DB:	57.500  57.500  25.000  17.500	   |
|MILP:	0.000  0.000  25.000  0.000	   |
|	<strong>ACOPF	-> 		57.381	</strong>   |
|DB:	60.000  57.500  25.000  15.000	   |
|ACOPF:	60.000  15.119  25.000  0.000	   |
|==========================================|

